Data Analysis Replication Assignment
…
temp_biomass_age <- biomass_age |>
  filter(Treatment %in% c("12ConLD", "22ConLD", "22VarLD")) |> # filtering specific treatment data
  group_by(Treatment, Genotype, Age) |> # grouping by variables of interest
  summarize(n_cases = n(), # determining # of cases per set of observations
    avgBiomass = mean(weight.grams, na.rm = TRUE), # calculating avg. biomass per group
    sdBiomass = sd(weight.grams, na.rm = TRUE), # calculating SD per group
    seBiomass = sdBiomass / sqrt(n_cases), # calculating SE per group
    .groups = "drop") # drops grouping levels

# calling output table 
temp_biomass_age 

# A tibble: 26 × 7
   Treatment Genotype   Age n_cases avgBiomass  sdBiomass  seBiomass
   <chr>     <chr>    <dbl>   <int>      <dbl>      <dbl>      <dbl>
 1 12ConLD   Col         12       2   0.000135 0.0000416  0.0000294 
 2 12ConLD   Col         15       8   0.000484 0.000167   0.0000589 
 3 12ConLD   Col         18       8   0.000484 0.000189   0.0000667 
 4 12ConLD   Col         24       8   0.00217  0.000950   0.000336  
 5 12ConLD   Col FRI     12       2   0.000152 0.0000148  0.0000105 
 6 12ConLD   Col FRI     15       7   0.000492 0.000158   0.0000598 
 7 12ConLD   Col FRI     18       8   0.000803 0.000404   0.000143  
 8 12ConLD   Col FRI     29       6   0.00831  0.00402    0.00164   
 9 22ConLD   Col          9       2   0.000113 0.00000998 0.00000706
10 22ConLD   Col         12       2   0.000490 0.0000159  0.0000112 
# ℹ 16 more rows
…
About the dataset: In “Experiment 2,” they look at whether high temperature affect bolting times (used in Inferential Statistical Analysis). The dataset, “Experiment2.txt” has 4 variables (“Genotype”, “Treatment”, “Days.to.Bolt”, and “Notes.”) and was briefly described earlier in this report.

This last visualization replication involves looking at the differences in bolting behavior between Col and Col FRI in 22ConLD, 27ConLD, and 27VarLD conditions.

Code chunk 18: Loading in data and data wrangling

Since this data was already loading in a previous analysis, I am simply calling the original object and filtering it with the pipe operator and {dplyr} functions. Similarly to the previous visualization, I convert the “Col-0” and “Col-Ama” entries in the “Genotype” variable to only be “Col” for the final plot with mutate() and case_when().

I then use the {stringr} and {ggtext} packages to italicize the FRI genotype in the Col background for the plot, creating Col FRI. Lastly, I filter out the relevant treatments and assign the output to filtered_exp2.

# created in previous replicated analysis (unedited, original data frame)
exp_2

# A tibble: 79 × 5
   Observation Genotype Treatment Days.to.Bolt Notes
         <dbl> <chr>    <chr>            <dbl> <chr>
 1           1 Col-0    22ConLD             19 <NA> 
 2           2 Col-0    22ConLD             19 <NA> 
 3           3 Col-0    22ConLD             19 <NA> 
 4           4 Col-0    22ConLD             20 <NA> 
 5           5 Col-0    22ConLD             20 <NA> 
 6           6 Col-0    22ConLD             22 <NA> 
 7           7 Col-0    22ConLD             29 tiny 
 8           8 Col-0    27ConLD             17 <NA> 
 9           9 Col-0    27ConLD             17 <NA> 
10          10 Col-0    27ConLD             17 <NA> 
# ℹ 69 more rows
…
